<svg xmlns="http://www.w3.org/2000/svg" width="13.934" height="9.797" viewBox="0 0 13.934 9.797">
  <path id="Icon_awesome-youtube" data-name="Icon awesome-youtube" d="M14.693,6.033a1.751,1.751,0,0,0-1.232-1.24A41.376,41.376,0,0,0,8.017,4.5a41.377,41.377,0,0,0-5.444.293,1.751,1.751,0,0,0-1.232,1.24A18.367,18.367,0,0,0,1.05,9.409a18.367,18.367,0,0,0,.291,3.376A1.725,1.725,0,0,0,2.573,14a41.376,41.376,0,0,0,5.444.293A41.376,41.376,0,0,0,13.461,14a1.725,1.725,0,0,0,1.232-1.22,18.367,18.367,0,0,0,.291-3.376,18.367,18.367,0,0,0-.291-3.376Zm-8.1,5.448V7.337l3.642,2.072L6.592,11.48Z" transform="translate(-1.05 -4.5)" fill="#ff4600"/>
</svg>
